---------------------------------------------
 Thu Jun 13 2019 17:38:42 GMT+0300 (GMT+03:00)
 Merhaba 
---------------------------------------------
 Thu Jun 13 2019 17:38:43 GMT+0300 (GMT+03:00)
 Merhaba 
